{
    "Note_1":[
        {
            "en":"My research is starting to become interesting, the first prototypes seem to work, but there is still work before the first experiments",
            "fr":"Mes recherches commencent a devenir intéressantes, les premiers prototypes semblent fonctionner, mais il reste encore du travail avant les premières expériences"
        }
    ],
    "Note_2":[
        {
        "en":"It seems that the machine works, but some calculations seem inaccurate, to see ...",
        "fr":"Il semblerait que la machine fonctionne, mais quelques calculs semblent inexacts, a voir ..."
        }
    ],
    "Note_3":[
        {
        "en":"The calculations are corrected! A simple simplification error in terms of displacement factors. If the corrections are correct, I will be able to launch the first tests.",
        "fr":"Les calculs sont corrigés ! Une simple erreur de simplification au niveau des facteurs de déplacement. Si les corrections s avèrent corrects, je pourrai lancer les premiers tests."
        }
    ],
    "Note_4":[
        {
        "en":"Everything is just! The machine is in place and the first guinea pigs will soon be able to ... travel ...",
        "fr":"Tout est juste ! La machine est en place et les premiers cobayes pourront bientôt ... voyager ..."
        }
    ],
    "Note_5":[
        {
        "en":"The first mice unfortunately did not survive the shock of displacement. I have to revisit the relative coefficients if I want to continue.",
        "fr":"Les premières souris n ont malheureusement pas survécues au choc du déplacement. Il faut que je revoie les coefficients relatifs si je veux poursuivre."
        }
    ],
    "Note_6":[
        {
        "en":"14 mice have passed the test! But they seem affected by something. They are different and do not react in the same way.",
        "fr":"14 souris ont brillamment réussi le test ! Mais elles semblent affectées par quelque chose. Elles sont différentes et ne réagissent plus de la même manière."
        }
    ],
    "Note_7":[
        {
        "en":"The memory of the subjects seems to be violently altered, indeed, the tele-ported mice can barely move correctly.",
        "fr":"La mémoire des sujets semble être violemment altérée, en effet, les souris télé-portées arrivent a peine a se déplacer correctement."
        }
    ],
    "Note_8":[
        {
        "en":"Einstein was right, 100 years before me he had to come to the same conclusions. Is it really impossible to travel in time?",
        "fr":"Einstein avait raison, 100 ans avant moi il avait dû en venir aux mêmes conclusions. Serait-il réellement impossible de voyager dans le temps ?"
        }
    ],
    "Note_9":[
        {
        "en":"I do not lose hope! My research continues and I try to accustom some mice to a simplistic labyrinth, we will see if their behavior changes.",
        "fr":"Je ne perds pas espoir ! Mes recherches continuent et je tente d habituer certaines souris à un labyrinthe simpliste, nous verrons si leur comportement change."
        }
    ],
    "Note_10":[
        {
        "en":"The mice have no memory of the labyrinth, after traveling in time they still can not find the exit ... I have to find a way to stimulate their memory.",
        "fr":"Les souris n ont aucun souvenir du labyrinthe, après avoir voyagé dans le temps elles ne trouvent toujours pas la sortie ... Il faut que je trouve un moyen de stimuler leur mémoire."
        }
    ],
    "Note_11":[
        {
        "en":"Apparently, the memory of the mice is stimulated by a memory, indeed, their brain does not seem to have forgotten everything, the neuronal connections seem simply cut, I have to reactivate these connections.",
        "fr":"Apparemment, la mémoire des souris est stimulée par un souvenir, en effet, leur cerveau ne semble pas avoir tout oublié, les connexions neuronales semblent simplement coupées, Il faut que je réactive ces connexions."
        }
    ],
    "Note_12":[
        {
        "en":"That s it ! Mice seem to regain memory with stimuli of memories, sprinkle the labyrinth of distinctive elements for each mouse makes them remember it.",
        "fr":"Ca y est ! Les souris semblent retrouver la mémoire avec des stimulations des souvenirs, parsemer le labyrinthe d éléments distinctifs pour chaque souris les fait se souvenir de celui-ci."
        }
    ],
    "Note_13":[
        {
        "en":"Mice are now able to travel in time! I will enlarge the labyrinth and place monkeys there ...",
        "fr":"Les souris arrivent désormais a voyager dans le temps ! Je vais agrandir le labyrinthe et y placer des singes ..."
        }
    ],
    "Note_14":[
        {
        "en":"It is now the turn of the monkeys to travel in time and the experiences are going very well, without any side effects ...",
        "fr":"C est maintenant au tour des singes de voyager dans le temps et les expériences se déroulent très bien, sans effets secondaires ..."
        }
    ],
    "Note_15":[
        {
        "en":"I ... I think the tests are satisfactory, but the results will be valid only if ... I m afraid of having to venture myself in this experiment ...",
        "fr":"Je ... je pense que les tests sont satisfaisants, mais les résultats ne seront valides que si ... J ai peur d avoir a m aventurer moi même dans cette expérience ..."
        }
    ],
    "Note_16":[
        {
        "en":"I am building a very large labyrinth, made up of multiple rooms. A machine to escape, human size ...",
        "fr":"Je suis en train de construire un très gros labyrinthe, constitué de multiples salles. Une machine a s échapper, a taille humaine ..."
        }
    ],
    "Note_17":[
        {
        "en":"Everything is ready, this evening I plunge into the machine, I will go back a month in the past, when I finished building the labyrinth, if I can get out, the experience will be successful, otherwise ...",
        "fr":"Tout est prêt, ce soir je plonge dans la machine, je vais remonter d un mois dans le passé, lorsque j ai eu fini de construire le labyrinthe, si j arrive a sortir, l expérience sera réussie, sinon ..."
        }
    ],
    "Note_18":[
        {
        "en":"If you read these notes, then you have passed the experiment, you will have succeeded in trusting yourself and following the track of the machine. I wrote everything in a book on the desk ...",
        "fr":"Si tu lis ces notes, alors tu as réussi l expérience, tu auras réussi a te faire confiance a toi même et a suivre la piste de la machine. J ai tout écrit dans un livre sur le bureau ..."
        }
    ],
    "Note_19":[
        {
        "en":"The book tells everything, both experience and your past. I left these notes in the labyrinth in order to recreate a memory, that of the moment when I wrote them ...",
        "fr":"Le livre raconte tout, aussi bien l expérience que ton passé. J ai laissé ces notes dans le labyrinthe afin de recréer un souvenir, celui du moment ou je les ai écrites ..."
        }
    ],
    "Note_20":[
        {
        "en":"These notes will probably have succeeded in reminding you of the experience, if that is the case, the journey in time is possible, at least in the past ...",
        "fr":"Ces notes auront probablement réussies a te rappeller l expérience, si c est le cas, le voyage dans le temps est possible, tout du moins, dans le passé ..."
        }
    ],
    "Note_21":[
        {
        "en":"If we offer a choice, the obvious choice is not necessarily the right one ...",
        "fr":"Si on offre un choix, le choix évident n est pas forcément le bon ..."
        }
    ],
    "Note_Enigme":[
        {
        "en":"The first is 4, but the second is 3, the third is 1, but this world is upside down",
        "fr":"Le premier est 4, mais le second est 3, le troisieme est 1, mais ce monde est a l envers"
        }
    ]
}