{
    "Cle en cuivre":"Copper key",
    "Cle en or":"Golden key",
    "Cle en argent":"Iron key",
    "Recupéré : ":"Picked up : ",
    "Nouveau":"New",
    "Continuer":"Continue",
    "Quitter":"Exit",
    "Cle":"Key",
    "Salles secretes découvertes ! Trouvez la porte violette ...":"Secret rooms discovered ! Find the purple door ...",
    "Temps dépassé !":"Time Up !",
    "Impossible d'aller par là !":"Wrong direction !",
    "L'alerte a été déclenchée ! ":"The alert has been turned on !",
    "Il vous manque quelque chose pour activer ceci !": "You need something to activate this !",
    "C'est déjà activé !" : "This is already activated !",
    "Réinitiliser la sauvegarde":"Reset the saved game",
    "Bienvenue dans votre laboratoire professeur !":"Welcome back to your laboratory, professor"
}